%YAML 1.1
%TAG !u! tag:unity3d.com,2011:
--- !u!114 &11400000
MonoBehaviour:
  m_ObjectHideFlags: 0
  m_CorrespondingSourceObject: {fileID: 0}
  m_PrefabInstance: {fileID: 0}
  m_PrefabAsset: {fileID: 0}
  m_GameObject: {fileID: 0}
  m_Enabled: 1
  m_EditorHideFlags: 0
  m_Script: {fileID: 11500000, guid: 4b87a25d34871a74a9e1eaedb91672e8, type: 3}
  m_Name: WindShrine_EarthShrine
  m_EditorClassIdentifier: 
  front:
    cardType: 0
    name: Earth Shrine
    element: 3
    artwork: {fileID: 0}
    spellEffects:
    - requiredDevotion: 0
      effectType: 0
      devotionModifier: 0
      basicModifier: 2
      effectDescription: 2 Dmg.
    - requiredDevotion: 5
      effectType: 0
      devotionModifier: 0
      basicModifier: 3
      effectDescription: 3 Dmg.
  back:
    cardType: 0
    name: Wind Shrine
    element: 2
    artwork: {fileID: 0}
    spellEffects:
    - requiredDevotion: 0
      effectType: 1
      devotionModifier: 0
      basicModifier: 2
      effectDescription: Heal by 2
    - requiredDevotion: 5
      effectType: 1
      devotionModifier: 1
      basicModifier: 0
      effectDescription: Heal by Dev.
